<?xml version="1.0" encoding="UTF-8"?>
<svg width="24px" height="21px" viewBox="0 0 24 21" version="1.1" xmlns="http://www.w3.org/2000/svg" xmlns:xlink="http://www.w3.org/1999/xlink">
    <!-- Generator: Sketch 48.2 (47327) - http://www.bohemiancoding.com/sketch -->
    <title>Group 2</title>
    <desc>Created with Sketch.</desc>
    <defs></defs>
    <g id="Home---Atomic-LandingPage-Copy-11" stroke="none" stroke-width="1" fill="none" fill-rule="evenodd" transform="translate(-1319.000000, -194.000000)">
        <g id="NAV-Copy" transform="translate(1294.000000, 60.000000)" stroke="#C20724" stroke-width="2.30512494">
            <g id="Icons" transform="translate(25.000000, 134.000000)">
                <g id="Group" transform="translate(0.000000, 0.000000)">
                    <g id="List" transform="translate(0.000000, 0.691215)">
                        <g id="Group-2">
                            <rect id="Rectangle-60-Copy-16" x="1.15256247" y="1.15256247" width="6.33909381" height="6.33084944" rx="0.76837498"></rect>
                            <rect id="Rectangle-72-Copy-5" x="11.2374843" y="1.15256247" width="10.6612032" height="6.33084944" rx="0.76837498"></rect>
                            <rect id="Rectangle-60-Copy-24" x="1.15256247" y="12.667195" width="6.33909381" height="6.33084944" rx="0.76837498"></rect>
                            <rect id="Rectangle-72-Copy-6" x="11.2374843" y="12.667195" width="10.6612032" height="6.33084944" rx="0.76837498"></rect>
                        </g>
                    </g>
                </g>
            </g>
        </g>
    </g>
</svg>