<?xml version="1.0" encoding="UTF-8"?>
<svg width="28px" height="23px" viewBox="0 0 28 23" version="1.1" xmlns="http://www.w3.org/2000/svg" xmlns:xlink="http://www.w3.org/1999/xlink">
    <!-- Generator: Sketch 48.2 (47327) - http://www.bohemiancoding.com/sketch -->
    <title>history-2</title>
    <desc>Created with Sketch.</desc>
    <defs></defs>
    <g id="Home---Atomic-LandingPage-Copy-7" stroke="none" stroke-width="1" fill="none" fill-rule="evenodd" transform="translate(-1317.000000, -628.000000)">
        <g id="history-2" transform="translate(1317.000000, 628.000000)" fill="#DEDEDE" fill-rule="nonzero">
            <polygon id="Shape" points="14.6666875 6.38890885 14.6666875 12.7777578 20.3733125 16.0233333 21.3333125 14.4708333 16.6666875 11.8194245 16.6666875 6.38890885"></polygon>
            <path d="M15.9933125,0 C9.36,0 4,5.14942448 4,11.5 L0,11.5 L5.1933125,16.4769245 L5.286625,16.6621823 L10.6666875,11.5 L6.6666875,11.5 C6.6666875,6.56140885 10.8466875,2.55557552 16,2.55557552 C21.1533125,2.55557552 25.3333125,6.56140885 25.3333125,11.5 C25.3333125,16.4385911 21.1533125,20.4444245 16,20.4444245 C13.42,20.4444245 11.0933125,19.435 9.4066875,17.8185911 L7.52,19.6266667 C9.6866875,21.7094245 12.68,23 15.9933125,23 C22.6266875,23 28,17.8505755 28,11.5 C28,5.14942448 22.6266875,0 15.9933125,0 Z" id="Shape"></path>
        </g>
    </g>
</svg>