<?xml version="1.0" encoding="UTF-8"?>
<svg width="15px" height="16px" viewBox="0 0 15 16" version="1.1" xmlns="http://www.w3.org/2000/svg" xmlns:xlink="http://www.w3.org/1999/xlink">
    <!-- Generator: Sketch 48.2 (47327) - http://www.bohemiancoding.com/sketch -->
    <title>edit-3</title>
    <desc>Created with Sketch.</desc>
    <defs></defs>
    <g id="Custom-Preset-Copy-2" stroke="none" stroke-width="1" fill="none" fill-rule="evenodd" transform="translate(-404.000000, -235.000000)" stroke-linecap="round" stroke-linejoin="round">
        <g id="EDIT" transform="translate(404.000000, 235.000000)" stroke="#000000" stroke-width="0.8">
            <g id="edit-3" transform="translate(0.823529, 0.941176)">
                <polygon id="Shape" points="8.08823529 0 11.0294118 2.80309414 2.94117647 10.511603 0 10.511603 0 7.70850888"></polygon>
                <path d="M0,13.7606439 L13.2352941,13.7606439" id="Shape"></path>
            </g>
        </g>
    </g>
</svg>