<?xml version="1.0" encoding="UTF-8"?>
<svg width="12px" height="9px" viewBox="0 0 12 9" version="1.1" xmlns="http://www.w3.org/2000/svg" xmlns:xlink="http://www.w3.org/1999/xlink">
    <!-- Generator: Sketch 50 (54983) - http://www.bohemiancoding.com/sketch -->
    <title>tick-inside-circle</title>
    <desc>Created with Sketch.</desc>
    <defs></defs>
    <g id="Page-1" stroke="none" stroke-width="1" fill="none" fill-rule="evenodd" opacity="0.599999964">
        <g id="Custom-Preset-Copy-3" transform="translate(-613.000000, -585.000000)" fill="#FFFFFF" fill-rule="nonzero">
            <g id="tick-inside-circle" transform="translate(613.000000, 584.000000)">
                <polygon id="Shape" points="1.425 5.075 0.375 6.125 3.75 9.5 11.25 2 10.2 0.95 3.75 7.4"></polygon>
            </g>
        </g>
    </g>
</svg>